한국가스공사 R 기초
…
데이터 파일 읽고 저장하기 - .csv

readr 패키지의 read_csv와 write_csv 함수를 사용합니다.

library(readr)
data <- mtcars

# csv 파일 쓰기
write_csv(data, "my_mtcars.csv")

# csv 파일 읽기
my_data <- read_csv("my_mtcars.csv")
my_data

# A tibble: 32 × 11
     mpg   cyl  disp    hp  drat    wt  qsec    vs    am  gear  carb
   <dbl> <dbl> <dbl> <dbl> <dbl> <dbl> <dbl> <dbl> <dbl> <dbl> <dbl>
 1  21       6  160    110  3.9   2.62  16.5     0     1     4     4
 2  21       6  160    110  3.9   2.88  17.0     0     1     4     4
 3  22.8     4  108     93  3.85  2.32  18.6     1     1     4     1
 4  21.4     6  258    110  3.08  3.22  19.4     1     0     3     1
 5  18.7     8  360    175  3.15  3.44  17.0     0     0     3     2
 6  18.1     6  225    105  2.76  3.46  20.2     1     0     3     1
 7  14.3     8  360    245  3.21  3.57  15.8     0     0     3     4
 8  24.4     4  147.    62  3.69  3.19  20       1     0     4     2
 9  22.8     4  141.    95  3.92  3.15  22.9     1     0     4     2
10  19.2     6  168.   123  3.92  3.44  18.3     1     0     4     4
# ℹ 22 more rows
…
여러 시트가 있을 경우 “sheet = 시트번호 또는 시트명”을 넣어줍니다.

library(readxl)
library(writexl)
data <- mtcars

# xlsx 파일 쓰기
write_xlsx(data, "my_mtcars.xlsx")

# xlsx 파일 읽기
my_mtcars <- read_xlsx("my_mtcars.xlsx")
my_mtcars

# A tibble: 32 × 11
     mpg   cyl  disp    hp  drat    wt  qsec    vs    am  gear  carb
   <dbl> <dbl> <dbl> <dbl> <dbl> <dbl> <dbl> <dbl> <dbl> <dbl> <dbl>
 1  21       6  160    110  3.9   2.62  16.5     0     1     4     4
 2  21       6  160    110  3.9   2.88  17.0     0     1     4     4
 3  22.8     4  108     93  3.85  2.32  18.6     1     1     4     1
 4  21.4     6  258    110  3.08  3.22  19.4     1     0     3     1
 5  18.7     8  360    175  3.15  3.44  17.0     0     0     3     2
 6  18.1     6  225    105  2.76  3.46  20.2     1     0     3     1
 7  14.3     8  360    245  3.21  3.57  15.8     0     0     3     4
 8  24.4     4  147.    62  3.69  3.19  20       1     0     4     2
 9  22.8     4  141.    95  3.92  3.15  22.9     1     0     4     2
10  19.2     6  168.   123  3.92  3.44  18.3     1     0     4     4
# ℹ 22 more rows
…
# A tibble: 6 × 11
  지역    `2012` `2013` `2014` `2015` `2016` `2017` `2018` `2019` `2020` `2021`
  <chr>    <dbl>  <dbl>  <dbl>  <dbl>  <dbl>  <dbl>  <dbl>  <dbl>  <dbl>  <dbl>
1 전국      1.30  1.19   1.20    1.24   1.17  1.05   0.977  0.918  0.837  0.808
2 서울특…   1.06  0.968  0.983   1.00   0.94  0.836  0.761  0.717  0.642  0.626
3 부산광…   1.14  1.05   1.09    1.14   1.10  0.976  0.899  0.827  0.747  0.728
4 대구광…   1.22  1.13   1.17    1.22   1.19  1.07   0.987  0.932  0.807  0.785
5 인천광…   1.30  1.20   1.21    1.22   1.14  1.01   1.01   0.94   0.829  0.778
6 광주광…   1.30  1.17   1.20    1.21   1.17  1.05   0.972  0.913  0.811  0.896

fertility_long <- pivot_longer(fertility, cols=2:11, names_to="year", values_to="fertility")
fertility_long

# A tibble: 180 × 3
   지역  year  fertility
   <chr> <chr>     <dbl>
 1 전국  2012      1.30 
 2 전국  2013      1.19 
 3 전국  2014      1.20 
 4 전국  2015      1.24 
 5 전국  2016      1.17 
 6 전국  2017      1.05 
 7 전국  2018      0.977
 8 전국  2019      0.918
 9 전국  2020      0.837
10 전국  2021      0.808
# ℹ 170 more rows
…
summarize()
요약값

%>%
파이프 오퍼레이터

gapminder 데이터

install.packages(“gapminder”)

# gapminder 패키지의 gapminder 데이터는 나라별/연도별 기대수명, 인구, 1인당GDP를 보여줍니다.
library(gapminder)
gapminder

# A tibble: 1,704 × 6
   country     continent  year lifeExp      pop gdpPercap
   <fct>       <fct>     <int>   <dbl>    <int>     <dbl>
 1 Afghanistan Asia       1952    28.8  8425333      779.
 2 Afghanistan Asia       1957    30.3  9240934      821.
 3 Afghanistan Asia       1962    32.0 10267083      853.
 4 Afghanistan Asia       1967    34.0 11537966      836.
 5 Afghanistan Asia       1972    36.1 13079460      740.
 6 Afghanistan Asia       1977    38.4 14880372      786.
 7 Afghanistan Asia       1982    39.9 12881816      978.
 8 Afghanistan Asia       1987    40.8 13867957      852.
 9 Afghanistan Asia       1992    41.7 16317921      649.
10 Afghanistan Asia       1997    41.8 22227415      635.
# ℹ 1,694 more rows
…
# A tibble: 6 × 6
  country     continent  year lifeExp      pop gdpPercap
  <fct>       <fct>     <int>   <dbl>    <int>     <dbl>
1 Afghanistan Asia       1952    28.8  8425333      779.
2 Afghanistan Asia       1957    30.3  9240934      821.
3 Afghanistan Asia       1962    32.0 10267083      853.
4 Afghanistan Asia       1967    34.0 11537966      836.
5 Afghanistan Asia       1972    36.1 13079460      740.
6 Afghanistan Asia       1977    38.4 14880372      786.

# select(변수이름1, 변수이름2, ...)
data_cyl <- data %>% select(country, year, lifeExp)
data_cyl

# A tibble: 1,704 × 3
   country      year lifeExp
   <fct>       <int>   <dbl>
 1 Afghanistan  1952    28.8
 2 Afghanistan  1957    30.3
 3 Afghanistan  1962    32.0
 4 Afghanistan  1967    34.0
 5 Afghanistan  1972    36.1
 6 Afghanistan  1977    38.4
 7 Afghanistan  1982    39.9
 8 Afghanistan  1987    40.8
 9 Afghanistan  1992    41.7
10 Afghanistan  1997    41.8
# ℹ 1,694 more rows
…
# A tibble: 6 × 6
  country continent  year lifeExp     pop gdpPercap
  <fct>   <fct>     <int>   <dbl>   <int>     <dbl>
1 Albania Europe     1952    55.2 1282697     1601.
2 Albania Europe     1957    59.3 1476505     1942.
3 Albania Europe     1962    64.8 1728137     2313.
4 Albania Europe     1967    66.2 1984060     2760.
5 Albania Europe     1972    67.7 2263554     3313.
6 Albania Europe     1977    68.9 2509048     3533.

# filter(변수 %in% c())
data_asia_europe_oceania <- data %>% filter(continent %in% c("Asia", "Europe", "Oceania"))
data_asia_europe_oceania

# A tibble: 780 × 6
   country     continent  year lifeExp      pop gdpPercap
   <fct>       <fct>     <int>   <dbl>    <int>     <dbl>
 1 Afghanistan Asia       1952    28.8  8425333      779.
 2 Afghanistan Asia       1957    30.3  9240934      821.
 3 Afghanistan Asia       1962    32.0 10267083      853.
 4 Afghanistan Asia       1967    34.0 11537966      836.
 5 Afghanistan Asia       1972    36.1 13079460      740.
 6 Afghanistan Asia       1977    38.4 14880372      786.
 7 Afghanistan Asia       1982    39.9 12881816      978.
 8 Afghanistan Asia       1987    40.8 13867957      852.
 9 Afghanistan Asia       1992    41.7 16317921      649.
10 Afghanistan Asia       1997    41.8 22227415      635.
# ℹ 770 more rows

slice(): 인덱스로 행(관측치) 추출

library(gapminder)
library(dplyr)

data <- gapminder

# slice(선택위치1, 선택위치2, ...)
data_select <- data %>% slice(100:150, 200:250)
data_select

# A tibble: 102 × 6
   country    continent  year lifeExp       pop gdpPercap
   <fct>      <fct>     <int>   <dbl>     <int>     <dbl>
 1 Bangladesh Asia       1967    43.5  62821884      721.
 2 Bangladesh Asia       1972    45.3  70759295      630.
 3 Bangladesh Asia       1977    46.9  80428306      660.
 4 Bangladesh Asia       1982    50.0  93074406      677.
 5 Bangladesh Asia       1987    52.8 103764241      752.
 6 Bangladesh Asia       1992    56.0 113704579      838.
 7 Bangladesh Asia       1997    59.4 123315288      973.
 8 Bangladesh Asia       2002    62.0 135656790     1136.
 9 Bangladesh Asia       2007    64.1 150448339     1391.
10 Belgium    Europe     1952    68     8730405     8343.
# ℹ 92 more rows
…
mutate(): 새로운 열(변수) 만들기

library(gapminder)
library(dplyr)

data <- gapminder

# mutate(새로운변수1이름 = 기존변수연산,새로운변수2이름 = 기존변수연산, ...)
data_gdp <- data %>% mutate(gdp = pop*gdpPercap)
data_gdp

# A tibble: 1,704 × 7
   country     continent  year lifeExp      pop gdpPercap          gdp
   <fct>       <fct>     <int>   <dbl>    <int>     <dbl>        <dbl>
 1 Afghanistan Asia       1952    28.8  8425333      779.  6567086330.
 2 Afghanistan Asia       1957    30.3  9240934      821.  7585448670.
 3 Afghanistan Asia       1962    32.0 10267083      853.  8758855797.
 4 Afghanistan Asia       1967    34.0 11537966      836.  9648014150.
 5 Afghanistan Asia       1972    36.1 13079460      740.  9678553274.
 6 Afghanistan Asia       1977    38.4 14880372      786. 11697659231.
 7 Afghanistan Asia       1982    39.9 12881816      978. 12598563401.
 8 Afghanistan Asia       1987    40.8 13867957      852. 11820990309.
 9 Afghanistan Asia       1992    41.7 16317921      649. 10595901589.
10 Afghanistan Asia       1997    41.8 22227415      635. 14121995875.
# ℹ 1,694 more rows
…
